-------------------------------------------------------------------------------
Test set: pl.edu.pjwstk.mpr.s13743.first_maven_project.service.AddressManagerTest
-------------------------------------------------------------------------------
Tests run: 2, Failures: 0, Errors: 0, Skipped: 0, Time elapsed: 0.274 sec - in pl.edu.pjwstk.mpr.s13743.first_maven_project.service.AddressManagerTest
