pl/edu/pjwstk/mpr/s13743/first_maven_project/domain/Address.class
pl/edu/pjwstk/mpr/s13743/first_maven_project/domain/Order.class
pl/edu/pjwstk/mpr/s13743/first_maven_project/domain/OrderItem.class
pl/edu/pjwstk/mpr/s13743/first_maven_project/service/ClientDetailsManager.class
pl/edu/pjwstk/mpr/s13743/first_maven_project/service/OrderItemManager.class
pl/edu/pjwstk/mpr/s13743/first_maven_project/service/AddressManager.class
pl/edu/pjwstk/mpr/s13743/first_maven_project/domain/ClientDetails.class
pl/edu/pjwstk/mpr/s13743/first_maven_project/service/OrderManager.class
